{
  "development": {
    "redisPort": 6379,
    "redisHost": "127.0.0.1",
    "redisDB" : 0  
    },
  "production": {
    "redisPort": 6379,
    "redisHost": "127.0.0.1",
    "redisDB" : 1
  }
}